{
    "B737":
        {
            "name":"Boeing 737",
            "planeclass":"medium",
            "speed":"900"
        },
    "B747":
        {
            "name":"Boeing 747",
            "planeclass":"medium",
            "speed":"900"
        },
    "B787":
        {
            "name":"Boeing 787",
            "planeclass":"heavy",
            "speed":"900"
        },
    "A330":
        {
            "name":"Airbus 330",
            "planeclass":"medium",
            "speed":"900"
        },
    "A380":
        {
            "name":"Airbus 380",
            "planeclass":"heavy",
            "speed":"900"
        },
    "P172":
        {
            "name":"Cessna P172 SkyHawk",
            "planeclass":"light",
            "speed":"350"
        },
    "Concorde":
        {
            "name":"Concorde",
            "planeclass":"medium",
            "speed":"2500"
        }
}